…
# thus the marginal P(y == 1) is...
marginal_p_y1 = p_y1[["x0"]] * (1 - p_x1) + p_y1[["x1"]] * p_x1

set.seed(1234)
n = 40
df = tibble(
  x = paste0("x", rbinom(n, 1, p_x1)),
  y = rbinom(n, 1, p_y1[x])
)

df
```

    ## # A tibble: 40 × 2
    ##    x         y
    ##    <chr> <int>
    ##  1 x1        1
    ##  2 x1        1
    ##  3 x1        1
    ##  4 x1        1
    ##  5 x0        0
    ##  6 x1        1
    ##  7 x1        1
    ##  8 x1        1
    ##  9 x1        1
    ## 10 x1        1
    ## # … with 30 more rows
…
