…
str(x)
```

    ##  rvar<4000>[100]   0.0018 ± 1.00   0.0116 ± 0.99   0.0164 ± 0.99  -0.0231 ± 1.00 ...

We could visualize 100 datapoints from one version of `x` by using
`unnest_rvars()` on a data frame containing x. This will return a long
format data frame with a `.draw` column indexing the draws from `x`:

``` r
tibble(x = x) %>%
  tidybayes::unnest_rvars()
```

    ## # A tibble: 400,000 x 4
    ##         x .chain .iteration .draw
    ##     <dbl>  <int>      <int> <int>
    ##  1 -1.21       1          1     1
    ##  2  0.277      1          2     2
    ##  3  1.08       1          3     3
    ##  4 -2.35       1          4     4
    ##  5  0.429      1          5     5
    ##  6  0.506      1          6     6
    ##  7 -0.575      1          7     7
    ##  8 -0.547      1          8     8
    ##  9 -0.564      1          9     9
    ## 10 -0.890      1         10    10
    ## # ... with 399,990 more rows
…
df = tibble(
  condition = rep(c("A", "B"), n_participant),
  mean_condition = rep(c(0,1), n_participant),
  participant = rep(1:n_participant, each = 2),
  mean = mean_condition + offset_participant[participant],
  x = rnorm(n_participant*2, mean, sd = 1)
)

df
```

    ## # A tibble: 60 x 5
    ##    condition mean_condition participant   mean       x
    ##    <chr>              <dbl>       <int>  <dbl>   <dbl>
    ##  1 A                      0           1 -0.604  0.499 
    ##  2 B                      1           1  0.396 -0.0791
    ##  3 A                      0           2  0.139 -0.571 
    ##  4 B                      1           2  1.14   0.637 
    ##  5 A                      0           3  0.542 -1.09  
    ##  6 B                      1           3  1.54   0.375 
    ##  7 A                      0           4 -1.17  -3.35  
    ##  8 B                      1           4 -0.173 -1.51  
    ##  9 A                      0           5  0.215 -0.0797
    ## 10 B                      1           5  1.21   0.749 
    ## # ... with 50 more rows
…
Now, if we wanted a confidence interval on the paired differences
between A and B, for a single dataset we could pivot it wider by
`condition` and then calculate the difference:

``` r
df_wide = df %>%
  select(participant, condition, x) %>%
  pivot_wider(names_from = condition, values_from = x) %>%
  mutate(diff = B - A)

df_wide
```

    ## # A tibble: 30 x 4
    ##    participant       A       B   diff
    ##          <int>   <dbl>   <dbl>  <dbl>
    ##  1           1  0.499  -0.0791 -0.578
    ##  2           2 -0.571   0.637   1.21 
    ##  3           3 -1.09    0.375   1.46 
    ##  4           4 -3.35   -1.51    1.84 
    ##  5           5 -0.0797  0.749   0.828
    ##  6           6  1.70    0.184  -1.52 
    ##  7           7 -1.14    0.432   1.57 
    ##  8           8 -1.27   -0.242   1.03 
    ##  9           9 -1.39   -0.534   0.855
    ## 10          10 -0.969   0.0581  1.03 
    ## # ... with 20 more rows
…
df = tibble(
  condition = rep(c("A", "B"), n_participant),
  mean_condition = rep(c(0,1), n_participant),
  participant = rep(1:n_participant, each = 2),
  mean = mean_condition + offset_participant[participant],
  x = rvar_rng(rnorm, n_participant*2, mean, sd = 1)
)

df
```

    ## # A tibble: 60 x 5
    ##    condition mean_condition participant             mean              x
    ##    <chr>              <dbl>       <int>           <rvar>         <rvar>
    ##  1 A                      0           1   0.00091 ± 0.50  -0.0113 ± 1.1
    ##  2 B                      1           1   1.00091 ± 0.50   0.9954 ± 1.1
    ##  3 A                      0           2   0.00580 ± 0.49   0.0054 ± 1.1
    ##  4 B                      1           2   1.00580 ± 0.49   1.0142 ± 1.1
    ##  5 A                      0           3   0.00820 ± 0.49   0.0167 ± 1.1
    ##  6 B                      1           3   1.00820 ± 0.49   1.0044 ± 1.1
    ##  7 A                      0           4  -0.01156 ± 0.50  -0.0017 ± 1.1
    ##  8 B                      1           4   0.98844 ± 0.50   1.0157 ± 1.1
    ##  9 A                      0           5  -0.00539 ± 0.51  -0.0140 ± 1.1
    ## 10 B                      1           5   0.99461 ± 0.51   1.0072 ± 1.1
    ## # ... with 50 more rows
Now we have a data frame the exact same shape as in the single
simulation example, except the `mean` and `x` columns are `rvar`s, each
containing 4000 draws from the distribution of possible `mean`s and
`x`s.

We can grab the observations from just one simulation by unnesting the
`rvar` columns, using `tidybayes::unnest_rvars()`, which will return a
long-format data frame:

``` r
df %>%
  tidybayes::unnest_rvars()
```

    ## # A tibble: 240,000 x 8
    ## # Groups:   condition, mean_condition, participant [60]
    ##    condition mean_condition participant   mean      x .chain .iteration .draw
    ##    <chr>              <dbl>       <int>  <dbl>  <dbl>  <int>      <int> <int>
    ##  1 A                      0           1 -0.604  1.11       1          1     1
    ##  2 A                      0           1  0.139  1.04       1          2     2
    ##  3 A                      0           1  0.542  0.367      1          3     3
    ##  4 A                      0           1 -1.17  -0.271      1          4     4
    ##  5 A                      0           1  0.215  3.13       1          5     5
    ##  6 A                      0           1  0.253 -1.19       1          6     6
    ##  7 A                      0           1 -0.287  0.939      1          7     7
    ##  8 A                      0           1 -0.273 -1.69       1          8     8
    ##  9 A                      0           1 -0.282 -0.259      1          9     9
    ## 10 A                      0           1 -0.445 -1.81       1         10    10
    ## # ... with 239,990 more rows
…
As before, we can use `tidyr::pivot_wider()` to restructure the tibble
(even with `rvar`s in it!) and then calculate the difference between
conditions:

``` r
df_wide = df %>%
  select(participant, condition, x) %>%
  pivot_wider(names_from = condition, values_from = x) %>%
  mutate(diff = B - A)

df_wide
```

    ## # A tibble: 30 x 4
    ##    participant              A           B        diff
    ##          <int>         <rvar>      <rvar>      <rvar>
    ##  1           1  -0.0113 ± 1.1  1.00 ± 1.1  1.01 ± 1.4
    ##  2           2   0.0054 ± 1.1  1.01 ± 1.1  1.01 ± 1.4
    ##  3           3   0.0167 ± 1.1  1.00 ± 1.1  0.99 ± 1.4
    ##  4           4  -0.0017 ± 1.1  1.02 ± 1.1  1.02 ± 1.4
    ##  5           5  -0.0140 ± 1.1  1.01 ± 1.1  1.02 ± 1.4
    ##  6           6   0.0079 ± 1.1  1.02 ± 1.1  1.01 ± 1.4
    ##  7           7  -0.0034 ± 1.1  0.99 ± 1.1  0.99 ± 1.4
    ##  8           8  -0.0085 ± 1.1  1.01 ± 1.1  1.02 ± 1.4
    ##  9           9   0.0260 ± 1.1  1.01 ± 1.1  0.99 ± 1.4
    ## 10          10   0.0128 ± 1.1  0.99 ± 1.1  0.98 ± 1.4
    ## # ... with 20 more rows
…
